…
*   Is the relationship otherwise minimized/exaggerated by including/not including zero? That is, does a small numeric change make a significant practical difference?

    *  For a Broadway production, it likely doesn't make a great deal of difference either way. For an example where it does make a difference, consider these [two](https://www.washingtonpost.com/resizer/XiLCHAesheKU4QJ_niK8VrlZvhw=/arc-anglerfish-washpost-prod-washpost/public/NZRQMVUGJY4GHALRVT2A6Z7RGM.jpg) [graphs](https://www.washingtonpost.com/resizer/eyb7mBUBRd_qnHZ4jaRD9DsanaE=/arc-anglerfish-washpost-prod-washpost/public/ZCS3Y6M2MM72VHV7CM3PFGL6PU.jpg). While the increase looks small in the first graph, it is deceptive because a small increase in global temperature has enormous real-world implications.

*   Is zero a reasonable value for the dataset?

    * To my knowledge, no Broadway show has ever grossed $0 in a given week. I'll check the data below to make sure:

```r
grosses_adj %>%
  filter(weekly_gross_adj == 0) %>% # filtering for shows that have grossed $0
  select(week_ending, show, seats_sold, weekly_gross_adj) # selecting relevant columns
```
```r
## # A tibble: 125 x 4
##    week_ending show                                  seats_sold weekly_gross_adj
##    <date>      <chr>                                      <dbl>            <dbl>
##  1 1986-03-30  "The Flying Karamazov Brothers \"Jug…          0                0
##  2 1986-04-06  "The Flying Karamazov Brothers \"Jug…          0                0
##  3 1986-04-13  "The Flying Karamazov Brothers \"Jug…          0                0
##  4 1986-04-20  "The Flying Karamazov Brothers \"Jug…          0                0
##  5 1993-04-11  "Raffi"                                        0                0
##  6 1994-11-20  "Basia on Broadway"                            0                0
##  7 1994-11-27  "Basia on Broadway"                            0                0
##  8 2007-10-14  "Young Frankenstein"                           0                0
##  9 2007-10-21  "Young Frankenstein"                           0                0
## 10 2007-10-28  "Young Frankenstein"                           0                0
## # … with 115 more rows
```
…
